{
  "page" : 1,
  "total_results" : 10000,
  "total_pages" : 500,
  "results" : [
    {
      "original_language" : "ko",
      "poster_path" : "\/y2Yp7KC2FJSsdlRM5qkkIwQGCqU.jpg",
      "id" : 581389,
      "backdrop_path" : "\/drulhSX7P5TQlEMQZ3JoXKSDEfz.jpg",
      "vote_count" : 219,
      "adult" : false,
      "original_title" : "승리호",
      "overview" : "When the crew of a space junk collector ship called The Victory discovers a humanoid robot named Dorothy that's known to be a weapon of mass destruction, they get involved in a risky business deal which puts their lives at stake.",
      "vote_average" : 7.2999999999999998,
      "video" : false,
      "title" : "Space Sweepers",
      "popularity" : 2581.1950000000002,
      "genre_ids" : [
        18,
        14,
        878
      ],
      "release_date" : "2021-02-05"
    },
    {
      "original_language" : "en",
      "poster_path" : "\/8UlWHLMpgZm9bx6QYh0NFoq67TZ.jpg",
      "id" : 464052,
      "backdrop_path" : "\/srYya1ZlI97Au4jUYAktDe3avyA.jpg",
      "vote_count" : 3718,
      "adult" : false,
      "original_title" : "Wonder Woman 1984",
      "overview" : "Wonder Woman comes into conflict with the Soviet Union during the Cold War in the 1980s and finds a formidable foe by the name of the Cheetah.",
      "vote_average" : 6.9000000000000004,
      "video" : false,
      "title" : "Wonder Woman 1984",
      "popularity" : 1955.4400000000001,
      "genre_ids" : [
        14,
        28,
        12
      ],
      "release_date" : "2020-12-16"
    },
    {
      "original_language" : "es",
      "poster_path" : "\/dWSnsAGTfc8U27bWsy2RfwZs0Bs.jpg",
      "id" : 587996,
      "backdrop_path" : "\/6TPZSJ06OEXeelx1U1VIAt0j9Ry.jpg",
      "vote_count" : 326,
      "adult" : false,
      "original_title" : "Bajocero",
      "overview" : "When a prisoner transfer van is attacked, the cop in charge must fight those inside and outside while dealing with a silent foe: the icy temperatures.",
      "vote_average" : 6.4000000000000004,
      "video" : false,
      "title" : "Below Zero",
      "popularity" : 1345.8900000000001,
      "genre_ids" : [
        28,
        80,
        53
      ],
      "release_date" : "2021-01-29"
    },
    {
      "original_language" : "en",
      "poster_path" : "\/c7VlGCCgM9GZivKSzBgzuOVxQn7.jpg",
      "id" : 602269,
      "backdrop_path" : "\/vfuzELmhBjBTswXj2Vqxnu5ge4g.jpg",
      "vote_count" : 330,
      "adult" : false,
      "original_title" : "The Little Things",
      "overview" : "Deputy Sheriff Joe \"Deke\" Deacon joins forces with Sgt. Jim Baxter to search for a serial killer who's terrorizing Los Angeles. As they track the culprit, Baxter is unaware that the investigation is dredging up echoes of Deke's past, uncovering disturbing secrets that could threaten more than his case.",
      "vote_average" : 6.4000000000000004,
      "video" : false,
      "title" : "The Little Things",
      "popularity" : 1269.182,
      "genre_ids" : [
        53,
        80
      ],
      "release_date" : "2021-01-28"
    },
    {
      "original_language" : "en",
      "poster_path" : "\/6XYLiMxHAaCsoyrVo38LBWMw2p8.jpg",
      "id" : 775996,
      "backdrop_path" : "\/lOSdUkGQmbAl5JQ3QoHqBZUbZhC.jpg",
      "vote_count" : 709,
      "adult" : false,
      "original_title" : "Outside the Wire",
      "overview" : "In the near future, a drone pilot is sent into a deadly militarized zone and must work with an android officer to locate a doomsday device.",
      "vote_average" : 6.5,
      "video" : false,
      "title" : "Outside the Wire",
      "popularity" : 1243.1959999999999,
      "genre_ids" : [
        53,
        28,
        878
      ],
      "release_date" : "2021-01-15"
    },
    {
      "original_language" : "en",
      "poster_path" : "\/13B6onhL6FzSN2KaNeQeMML05pS.jpg",
      "id" : 651571,
      "backdrop_path" : "\/nz8xWrTKZzA5A7FgxaM4kfAoO1W.jpg",
      "vote_count" : 266,
      "adult" : false,
      "original_title" : "Breach",
      "overview" : "A hardened mechanic must stay awake and maintain an interstellar ark fleeing the dying planet Earth with a few thousand lucky souls on board... the last of humanity. Unfortunately, humans are not the only passengers. A shapeshifting alien creature has taken residence, its only goal is to kill as many people as possible. The crew must think quickly to stop this menace before it destroys mankind.",
      "vote_average" : 4.5999999999999996,
      "video" : false,
      "title" : "Breach",
      "popularity" : 1031.3920000000001,
      "genre_ids" : [
        878,
        28
      ],
      "release_date" : "2020-12-17"
    },
    {
      "original_language" : "en",
      "poster_path" : "\/zdkJs9j6yKo9di0kjtctM01fSMv.jpg",
      "id" : 614409,
      "backdrop_path" : "\/fAJuZDEkrqmYQUUDrro8wRqb2Tn.jpg",
      "vote_count" : 764,
      "adult" : false,
      "original_title" : "To All the Boys: Always and Forever",
      "overview" : "Senior year of high school takes center stage as Lara Jean returns from a family trip to Korea and considers her college plans — with and without Peter.",
      "vote_average" : 8.0999999999999996,
      "video" : false,
      "title" : "To All the Boys: Always and Forever",
      "popularity" : 893.45399999999995,
      "genre_ids" : [
        35,
        18,
        10749
      ],
      "release_date" : "2021-02-12"
    },
    {
      "original_language" : "en",
      "poster_path" : "\/95S6PinQIvVe4uJAd82a2iGZ0rA.jpg",
      "id" : 522444,
      "backdrop_path" : "\/fRrpOILyXuWaWLmqF7kXeMVwITQ.jpg",
      "vote_count" : 135,
      "adult" : false,
      "original_title" : "Black Water: Abyss",
      "overview" : "An adventure-loving couple convince their friends to explore a remote, uncharted cave system in the forests of Northern Australia. With a tropical storm approaching, they abseil into the mouth of the cave, but when the caves start to flood, tensions rise as oxygen levels fall and the friends find themselves trapped. Unknown to them, the storm has also brought in a pack of dangerous and hungry crocodiles.",
      "vote_average" : 5.0999999999999996,
      "video" : false,
      "title" : "Black Water: Abyss",
      "popularity" : 985.346,
      "genre_ids" : [
        27,
        53,
        12
      ],
      "release_date" : "2020-07-09"
    },
    {
      "original_language" : "en",
      "poster_path" : "\/hm58Jw4Lw8OIeECIq5qyPYhAeRJ.jpg",
      "id" : 508442,
      "backdrop_path" : "\/kf456ZqeC45XTvo6W9pW5clYKfQ.jpg",
      "vote_count" : 4848,
      "adult" : false,
      "original_title" : "Soul",
      "overview" : "Joe Gardner is a middle school teacher with a love for jazz music. After a successful gig at the Half Note Club, he suddenly gets into an accident that separates his soul from his body and is transported to the You Seminar, a center in which souls develop and gain passions before being transported to a newborn child. Joe must enlist help from the other souls-in-training, like 22, a soul who has spent eons in the You Seminar, in order to get back to Earth.",
      "vote_average" : 8.3000000000000007,
      "video" : false,
      "title" : "Soul",
      "popularity" : 897.04499999999996,
      "genre_ids" : [
        10751,
        16,
        35,
        18,
        10402,
        14
      ],
      "release_date" : "2020-12-25"
    },
    {
      "original_language" : "en",
      "poster_path" : "\/uwjaCH7PiWrkz7oWJ4fcL3xGrb0.jpg",
      "id" : 458576,
      "backdrop_path" : "\/8tNX8s3j1O0eqilOQkuroRLyOZA.jpg",
      "vote_count" : 415,
      "adult" : false,
      "original_title" : "Monster Hunter",
      "overview" : "A portal transports Lt. Artemis and an elite unit of soldiers to a strange world where powerful monsters rule with deadly ferocity. Faced with relentless danger, the team encounters a mysterious hunter who may be their only hope to find a way home.",
      "vote_average" : 7,
      "video" : false,
      "title" : "Monster Hunter",
      "popularity" : 869.21699999999998,
      "genre_ids" : [
        14,
        28,
        12
      ],
      "release_date" : "2020-12-03"
    },
    {
      "popularity" : 873.46799999999996,
      "original_language" : "zh",
      "id" : 604822,
      "backdrop_path" : "\/fX8e94MEWSuTJExndVYxKsmA4Hw.jpg",
      "vote_count" : 200,
      "overview" : "Covert security company Vanguard is the last hope of survival for an accountant after he is targeted by the world's deadliest mercenary organization.",
      "vote_average" : 6.5,
      "genre_ids" : [
        28,
        12,
        80
      ],
      "video" : false,
      "release_date" : "2020-09-30",
      "original_title" : "急先锋",
      "poster_path" : "\/vYvppZMvXYheYTWVd8Rnn9nsmNp.jpg",
      "adult" : false,
      "title" : "Vanguard"
    },
    {
      "popularity" : 1090.7260000000001,
      "original_language" : "ko",
      "id" : 581387,
      "backdrop_path" : "\/h9DIlghaiTxbQbt1FIwKNbQvEL.jpg",
      "vote_count" : 191,
      "overview" : "Stagnant since 1903, at an elevation of 9000', a volcano erupts on the mythical and majestic Baekdu Mountain.",
      "vote_average" : 6.7000000000000002,
      "genre_ids" : [
        28,
        12,
        53
      ],
      "video" : false,
      "release_date" : "2019-12-19",
      "original_title" : "백두산",
      "poster_path" : "\/zoeKREZ2IdAUnXISYCS0E6H5BVh.jpg",
      "adult" : false,
      "title" : "Ashfall"
    },
    {
      "popularity" : 767.53800000000001,
      "original_language" : "en",
      "id" : 644092,
      "backdrop_path" : "\/yImmxRokQ48PD49ughXdpKTAsAU.jpg",
      "vote_count" : 129,
      "overview" : "Two Brooklyn siblings' summer in a rural Oahu town takes an exciting turn when a journal pointing to long-lost treasure sets them on an adventure, leading them to reconnect with their Hawaiian heritage.",
      "vote_average" : 6.7000000000000002,
      "genre_ids" : [
        28,
        12,
        35,
        10751
      ],
      "video" : false,
      "release_date" : "2021-01-29",
      "original_title" : "Finding 'Ohana",
      "poster_path" : "\/tTWl37oAYRXS3D5mEHmjveXXyrN.jpg",
      "adult" : false,
      "title" : "Finding 'Ohana"
    },
    {
      "popularity" : 777.22000000000003,
      "original_language" : "en",
      "id" : 560144,
      "backdrop_path" : "\/3ombg55JQiIpoPnXYb2oYdr6DtP.jpg",
      "vote_count" : 173,
      "overview" : "When a virus threatens to turn the now earth-dwelling friendly alien hybrids against humans, Captain Rose Corley must lead a team of elite mercenaries on a mission to the alien world in order to save what's left of humanity.",
      "vote_average" : 5.7000000000000002,
      "genre_ids" : [
        878,
        28
      ],
      "video" : false,
      "release_date" : "2020-10-25",
      "original_title" : "Skylines",
      "poster_path" : "\/2W4ZvACURDyhiNnSIaFPHfNbny3.jpg",
      "adult" : false,
      "title" : "Skylines"
    },
    {
      "popularity" : 618.79499999999996,
      "original_language" : "en",
      "id" : 577922,
      "backdrop_path" : "\/wzJRB4MKi3yK138bJyuL9nx47y6.jpg",
      "vote_count" : 4435,
      "overview" : "Armed with only one word - Tenet - and fighting for the survival of the entire world, the Protagonist journeys through a twilight world of international espionage on a mission that will unfold in something beyond real time.",
      "vote_average" : 7.2999999999999998,
      "genre_ids" : [
        28,
        53,
        878
      ],
      "video" : false,
      "release_date" : "2020-08-22",
      "original_title" : "Tenet",
      "poster_path" : "\/k68nPLbIST6NP96JmTxmZijEvCA.jpg",
      "adult" : false,
      "title" : "Tenet"
    },
    {
      "popularity" : 650.32600000000002,
      "original_language" : "en",
      "id" : 520946,
      "backdrop_path" : "\/7TxeZVg2evMG42p0uSbMJpWNQ8A.jpg",
      "vote_count" : 82,
      "overview" : "Freddy Lupin, heir to a proud family line of werewolves, is in for a shock when on his 14th birthday his first 'warfing' goes awry, turning him into a ferocious poodle. The pack elders give Freddy until the next moonrise to prove he has the heart of a wolf, or risk being cast out forever. With the help of an unlikely ally in a streetwise stray named Batty, Freddy must prove he's 100% Wolf.",
      "vote_average" : 5.9000000000000004,
      "genre_ids" : [
        10751,
        16,
        14
      ],
      "video" : false,
      "release_date" : "2020-06-26",
      "original_title" : "100% Wolf",
      "poster_path" : "\/2VrvxK4yxNCU6KVgo5TADJeBEQu.jpg",
      "adult" : false,
      "title" : "100% Wolf"
    },
    {
      "popularity" : 594.38900000000001,
      "original_language" : "en",
      "id" : 539885,
      "backdrop_path" : "\/54yOImQgj8i85u9hxxnaIQBRUuo.jpg",
      "vote_count" : 1276,
      "overview" : "A black ops assassin is forced to fight for her own survival after a job goes dangerously wrong.",
      "vote_average" : 5.5999999999999996,
      "genre_ids" : [
        28,
        80,
        18,
        53
      ],
      "video" : false,
      "release_date" : "2020-07-02",
      "original_title" : "Ava",
      "poster_path" : "\/qzA87Wf4jo1h8JMk9GilyIYvwsA.jpg",
      "adult" : false,
      "title" : "Ava"
    },
    {
      "popularity" : 742.15200000000004,
      "original_language" : "en",
      "id" : 664767,
      "backdrop_path" : "\/9xeEGUZjgiKlI69jwIOi0hjKUIk.jpg",
      "vote_count" : 747,
      "overview" : "After the vicious slaughter of his family by stone-cold mercenary Sub-Zero, Hanzo Hasashi is exiled to the torturous Netherrealm. There, in exchange for his servitude to the sinister Quan Chi, he’s given a chance to avenge his family – and is resurrected as Scorpion, a lost soul bent on revenge. Back on Earthrealm, Lord Raiden gathers a team of elite warriors – Shaolin monk Liu Kang, Special Forces officer Sonya Blade and action star Johnny Cage – an unlikely band of heroes with one chance to save humanity. To do this, they must defeat Shang Tsung’s horde of Outworld gladiators and reign over the Mortal Kombat tournament.",
      "vote_average" : 8.4000000000000004,
      "genre_ids" : [
        14,
        28,
        12,
        16
      ],
      "video" : false,
      "release_date" : "2020-04-12",
      "original_title" : "Mortal Kombat Legends: Scorpion's Revenge",
      "poster_path" : "\/4VlXER3FImHeFuUjBShFamhIp9M.jpg",
      "adult" : false,
      "title" : "Mortal Kombat Legends: Scorpion's Revenge"
    },
    {
      "popularity" : 603.69399999999996,
      "original_language" : "en",
      "id" : 495764,
      "backdrop_path" : "\/9xNOiv6DZZjH7ABoUUDP0ZynouU.jpg",
      "vote_count" : 6926,
      "overview" : "Harley Quinn joins forces with a singer, an assassin and a police detective to help a young girl who had a hit placed on her after she stole a rare diamond from a crime lord.",
      "vote_average" : 7.0999999999999996,
      "genre_ids" : [
        28,
        80
      ],
      "video" : false,
      "release_date" : "2020-02-05",
      "original_title" : "Birds of Prey (and the Fantabulous Emancipation of One Harley Quinn)",
      "poster_path" : "\/h4VB6m0RwcicVEZvzftYZyKXs6K.jpg",
      "adult" : false,
      "title" : "Birds of Prey (and the Fantabulous Emancipation of One Harley Quinn)"
    },
    {
      "popularity" : 576.98299999999995,
      "original_language" : "en",
      "id" : 529203,
      "backdrop_path" : "\/cjaOSjsjV6cl3uXdJqimktT880L.jpg",
      "vote_count" : 1513,
      "overview" : "Searching for a safer habitat, the prehistoric Crood family discovers an idyllic, walled-in paradise that meets all of its needs. Unfortunately, they must also learn to live with the Bettermans -- a family that's a couple of steps above the Croods on the evolutionary ladder. As tensions between the new neighbors start to rise, a new threat soon propels both clans on an epic adventure that forces them to embrace their differences, draw strength from one another, and survive together.",
      "vote_average" : 7.5999999999999996,
      "genre_ids" : [
        10751,
        12,
        14,
        16
      ],
      "video" : false,
      "release_date" : "2020-11-25",
      "original_title" : "The Croods: A New Age",
      "poster_path" : "\/tK1zy5BsCt1J4OzoDicXmr0UTFH.jpg",
      "adult" : false,
      "title" : "The Croods: A New Age"
    }
  ]
}

